Dev Brain Iso-Seq - Figure 6 - Rare Variant
…
rareVar.logit$EPI.epi25 = -log10(EPI.epi25$pval[match(geneAnno$ensg,EPI.epi25$gene_id)])
rareVar.binary$EPI.epi25 = as.numeric(EPI.epi25$pval[match(geneAnno$ensg,EPI.epi25$gene_id)] < .01)

apply(rareVar.binary,2, table)

  ASD.SFARI.1 ASD.SFARI.1or2 ASD.SFARI.S DDD.kaplanis EPI.helbig ASD.fuTADA
0       19853          19180       19913        19774      19941      17750
1         213            889         153          292        125        255
  NDD.fuTADA SCZ.schema BIP.bipex EPI.epi25
0      17188      17894     17341     13531
1        817         34        33        15

rareVar.logit %>% as_tibble()

# A tibble: 62,437 × 10
   ASD.SFARI.1 ASD.SFA…¹ ASD.S…² DDD.k…³ EPI.h…⁴ ASD.f…⁵ NDD.f…⁶ SCZ.s…⁷ BIP.b…⁸
         <dbl>     <dbl>   <dbl>   <dbl>   <dbl>   <dbl>   <dbl>   <dbl>   <dbl>
 1          NA        NA      NA      NA      NA NA      NA           NA      NA
 2          NA        NA      NA      NA      NA NA      NA           NA      NA
 3          NA        NA      NA      NA      NA NA      NA           NA      NA
 4          NA        NA      NA      NA      NA NA      NA           NA      NA
 5          NA        NA      NA      NA      NA NA      NA           NA      NA
 6          NA        NA      NA      NA      NA NA      NA           NA      NA
 7           0         0       0       0       0  0.0190  0.0195      NA      NA
 8          NA        NA      NA      NA      NA NA      NA           NA      NA
 9          NA        NA      NA      NA      NA NA      NA           NA      NA
10          NA        NA      NA      NA      NA NA      NA           NA      NA
# … with 62,427 more rows, 1 more variable: EPI.epi25 <dbl>, and abbreviated
#   variable names ¹​ASD.SFARI.1or2, ²​ASD.SFARI.S, ³​DDD.kaplanis, ⁴​EPI.helbig,
#   ⁵​ASD.fuTADA, ⁶​NDD.fuTADA, ⁷​SCZ.schema, ⁸​BIP.bipex
…
