Dev Brain Iso-Seq - Figure 2 - External Support
…
ℹ Use `spec()` to retrieve the full column specification for this data.
ℹ Specify the column types or set `show_col_types = FALSE` to quiet this message.
Rows: 214516 Columns: 2
── Column specification ────────────────────────────────────────────────────────
Delimiter: ","
chr (2): transcript_ID, CAGE_support

ℹ Use `spec()` to retrieve the full column specification for this data.
ℹ Specify the column types or set `show_col_types = FALSE` to quiet this message.

support_for_plot

# A tibble: 214,516 × 11
   transcript_id trans…¹ ISM_s…² withi…³ withi…⁴ withi…⁵ withi…⁶ withi…⁷ withi…⁸
   <chr>         <chr>   <chr>   <lgl>   <lgl>   <lgl>   <lgl>   <lgl>   <lgl>  
 1 ENST00000494… Known   None    FALSE   FALSE   FALSE   FALSE   FALSE   FALSE  
 2 ENST00000424… Known   None    FALSE   FALSE   FALSE   FALSE   FALSE   FALSE  
 3 ENST00000445… Known   None    FALSE   FALSE   FALSE   FALSE   FALSE   FALSE  
 4 ENST00000457… Known   None    TRUE    TRUE    TRUE    TRUE    FALSE   FALSE  
 5 ENST00000414… Known   None    TRUE    FALSE   FALSE   FALSE   FALSE   FALSE  
 6 ENST00000655… Known   None    FALSE   TRUE    TRUE    TRUE    FALSE   FALSE  
 7 ENST00000457… Known   None    FALSE   TRUE    TRUE    TRUE    FALSE   FALSE  
 8 ENST00000591… Known   None    FALSE   FALSE   FALSE   FALSE   FALSE   FALSE  
 9 ENST00000644… Known   None    FALSE   FALSE   FALSE   FALSE   FALSE   FALSE  
10 ENST00000445… Known   None    TRUE    TRUE    TRUE    TRUE    FALSE   FALSE  
# … with 214,506 more rows, 2 more variables: within_polyA_site <lgl>,
#   polyA_motif_found <lgl>, and abbreviated variable names
#   ¹​transcript_novelty, ²​ISM_subtype, ³​within_CAGE_refTSS, ⁴​within_CAGE_fetal,
#   ⁵​within_ATAC_Greenleaf, ⁶​within_ATAC_Nowakowski, ⁷​within_ATAC_LuisCP,
#   ⁸​within_ATAC_LuisGZ
…
    within_CAGE_peak = sum(within_CAGE_refTSS | within_CAGE_fetal, na.rm = T),
    within_ATAC_peak = sum(within_ATAC_Greenleaf | within_ATAC_Nowakowski | within_ATAC_LuisCP | within_ATAC_LuisGZ, na.rm = T),
#    any_3p = sum(within_polyA_site | polyA_motif_found, na.rm = T),
    within_polyA_site = sum(within_polyA_site, na.rm = T),
    polyA_motif_found = sum(polyA_motif_found, na.rm = T),
    n = n()
  ) %>%
  pivot_longer(!c("transcript_novelty", "n")) %>%
  mutate(prop = value / n) %>%
  mutate(end = if_else(name %in% c("within_polyA_site", "polyA_motif_found", "any_3p"), "3' support", "5' support")) %>%
  mutate(end = end %>% factor(levels = c("5' support", "3' support"))) %>%
  mutate(name = name %>% as_factor())
support_for_plot2

# A tibble: 24 × 6
   transcript_novelty     n name              value  prop end       
   <fct>              <int> <fct>             <int> <dbl> <fct>     
 1 Known              23503 within_CAGE_peak  21451 0.913 5' support
 2 Known              23503 within_ATAC_peak  22024 0.937 5' support
 3 Known              23503 within_polyA_site 17940 0.763 3' support
 4 Known              23503 polyA_motif_found 17581 0.748 3' support
 5 ISM_Prefix         30273 within_CAGE_peak  29743 0.982 5' support
 6 ISM_Prefix         30273 within_ATAC_peak  29733 0.982 5' support
 7 ISM_Prefix         30273 within_polyA_site 10334 0.341 3' support
 8 ISM_Prefix         30273 polyA_motif_found 14149 0.467 3' support
 9 ISM_Suffix          8942 within_CAGE_peak   4432 0.496 5' support
10 ISM_Suffix          8942 within_ATAC_peak   4365 0.488 5' support
# … with 14 more rows
…
ℹ Use `spec()` to retrieve the full column specification for this data.
ℹ Specify the column types or set `show_col_types = FALSE` to quiet this message.
Rows: 87162 Columns: 2
── Column specification ────────────────────────────────────────────────────────
Delimiter: ","
chr (2): transcript_ID, CAGE_support

ℹ Use `spec()` to retrieve the full column specification for this data.
ℹ Specify the column types or set `show_col_types = FALSE` to quiet this message.

support_for_plot

# A tibble: 87,162 × 11
   transcript_id trans…¹ ISM_s…² withi…³ withi…⁴ withi…⁵ withi…⁶ withi…⁷ withi…⁸
   <chr>         <chr>   <chr>   <lgl>   <lgl>   <lgl>   <lgl>   <lgl>   <lgl>  
 1 ENST00000416… Known   None    TRUE    TRUE    FALSE   TRUE    FALSE   FALSE  
 2 ENST00000457… Known   None    TRUE    TRUE    TRUE    TRUE    FALSE   FALSE  
 3 ENST00000414… Known   None    TRUE    FALSE   FALSE   FALSE   FALSE   FALSE  
 4 ENST00000473… Known   None    TRUE    TRUE    TRUE    TRUE    FALSE   FALSE  
 5 ENST00000327… Known   None    TRUE    TRUE    TRUE    TRUE    FALSE   FALSE  
 6 ENST00000469… Known   None    TRUE    TRUE    TRUE    TRUE    FALSE   FALSE  
 7 ENST00000338… Known   None    TRUE    TRUE    TRUE    TRUE    FALSE   FALSE  
 8 ENST00000428… Known   None    TRUE    TRUE    TRUE    TRUE    FALSE   FALSE  
 9 ENST00000304… Known   None    TRUE    TRUE    TRUE    TRUE    FALSE   FALSE  
10 ENST00000481… Known   None    TRUE    TRUE    TRUE    TRUE    FALSE   FALSE  
# … with 87,152 more rows, 2 more variables: within_polyA_site <lgl>,
#   polyA_motif_found <lgl>, and abbreviated variable names
#   ¹​transcript_novelty, ²​ISM_subtype, ³​within_CAGE_refTSS, ⁴​within_CAGE_fetal,
#   ⁵​within_ATAC_Greenleaf, ⁶​within_ATAC_Nowakowski, ⁷​within_ATAC_LuisCP,
#   ⁸​within_ATAC_LuisGZ
…
    within_CAGE_peak = sum(within_CAGE_refTSS | within_CAGE_fetal, na.rm = T),
    within_ATAC_peak = sum(within_ATAC_Greenleaf | within_ATAC_Nowakowski | within_ATAC_LuisCP | within_ATAC_LuisGZ, na.rm = T),
#    any_3p = sum(within_polyA_site | polyA_motif_found, na.rm = T),
    within_polyA_site = sum(within_polyA_site, na.rm = T),
    polyA_motif_found = sum(polyA_motif_found, na.rm = T),
    n = n()
  ) %>%
  pivot_longer(!c("transcript_novelty", "n")) %>%
  mutate(prop = value / n) %>%
  mutate(end = if_else(name %in% c("within_polyA_site", "polyA_motif_found", "any_3p"), "3' support", "5' support")) %>%
  mutate(end = end %>% factor(levels = c("5' support", "3' support"))) %>%
  mutate(name = name %>% as_factor())
support_for_plot2

# A tibble: 24 × 6
   transcript_novelty     n name              value  prop end       
   <fct>              <int> <fct>             <int> <dbl> <fct>     
 1 Known              65006 within_CAGE_peak  49495 0.761 5' support
 2 Known              65006 within_ATAC_peak  54138 0.833 5' support
 3 Known              65006 within_polyA_site 42187 0.649 3' support
 4 Known              65006 polyA_motif_found 41856 0.644 3' support
 5 ISM_Prefix         22053 within_CAGE_peak  21440 0.972 5' support
 6 ISM_Prefix         22053 within_ATAC_peak  21520 0.976 5' support
 7 ISM_Prefix         22053 within_polyA_site 10085 0.457 3' support
 8 ISM_Prefix         22053 polyA_motif_found 12899 0.585 3' support
 9 ISM_Suffix         55606 within_CAGE_peak  17334 0.312 5' support
10 ISM_Suffix         55606 within_ATAC_peak  21612 0.389 5' support
# … with 14 more rows
…
