Dev Brain Iso-Seq - Figure S9 - Correlation plots
…
isoseq = read_tsv("data/AllBarcode_newID_geneLevel.txt.gz")

Rows: 19158 Columns: 4282
── Column specification ────────────────────────────────────────────────────────
Delimiter: "\t"
chr    (1): gene_name
dbl (4281): ACGGCATAGTAC, ACTGACTGATCC, ACTGGCACCGAG, AGCTAGCCCATG, AGTTTAGC...

ℹ Use `spec()` to retrieve the full column specification for this data.
ℹ Specify the column types or set `show_col_types = FALSE` to quiet this message.

isoseq

# A tibble: 19,158 × 4,282
   gene_name ACGGCATAG…¹ ACTGA…² ACTGG…³ AGCTA…⁴ AGTTT…⁵ ATCCG…⁶ CAGAC…⁷ CCCCC…⁸
   <chr>           <dbl>   <dbl>   <dbl>   <dbl>   <dbl>   <dbl>   <dbl>   <dbl>
 1 A1BG                0       0       0       0       0       0       0       0
 2 A1BG-AS1            0       0       0       0       0       0       0       0
 3 A2M                 0       0       0       1       0       0       0       0
 4 AAAS                0       0       0       0       0       0       0       0
 5 AACS                1       0       0       0       0       0       0       0
 6 AADAT               0       0       0       0       0       0       0       0
 7 AAGAB               0       0       0       0       0       0       0       0
 8 AAK1                0       0       0       0       0       0       0       0
 9 AAMDC               0       0       0       0       0       0       0       0
10 AAMP                0       0       0       0       0       0       0       0
# … with 19,148 more rows, 4,273 more variables: GCCGTAAAACTC <dbl>,
#   GGGCTGCTTATA <dbl>, GGTTGCTGTACG <dbl>, GTAGCGAGATGC <dbl>,
#   TCAGCTCACCCT <dbl>, TGACATTCTATT <dbl>, TGGTGAACCAGA <dbl>,
#   TTCTATGCCCGC <dbl>, AAAAATAAATTG <dbl>, AAAACCGCGCAG <dbl>,
#   AAAAGCAACGTG <dbl>, AAAGGCGCGCGG <dbl>, AAATCAACTGTA <dbl>,
#   AACCACGTTTAA <dbl>, AACGTACTATCG <dbl>, AACTGCCTTGTA <dbl>,
#   AAGATCCAAGGC <dbl>, AAGGCAGAATCT <dbl>, AAGGCTGACCGA <dbl>, …

short_read = read_tsv("data/single_cell/Raw_Single_Cell_4281.tsv.gz")

Rows: 30119 Columns: 4282
── Column specification ────────────────────────────────────────────────────────
Delimiter: "\t"
chr    (1): gene_name
dbl (4281): GTATAACATGAA, CGAATATTCTGT, TGGAACAGCAAT, TACCCTGTAAGA, CTCACTGA...

ℹ Use `spec()` to retrieve the full column specification for this data.
ℹ Specify the column types or set `show_col_types = FALSE` to quiet this message.

short_read

# A tibble: 30,119 × 4,282
   gene_name GTATAACAT…¹ CGAAT…² TGGAA…³ TACCC…⁴ CTCAC…⁵ ACAGC…⁶ AGTCC…⁷ AGGCT…⁸
   <chr>           <dbl>   <dbl>   <dbl>   <dbl>   <dbl>   <dbl>   <dbl>   <dbl>
 1 TSPAN6              0       1       0       1       0       1       1       0
 2 DPM1                1       0       0       0       0       1       3       2
 3 SCYL3               0       0       0       0       0       0       0       0
 4 C1orf112            0       0       0       0       1       0       1       0
 5 CFH                 0       0       0       0       0       0       0       0
 6 FUCA2               0       0       0       0       0       0       0       0
 7 GCLC                0       0       0       0       0       0       0       0
 8 NFYA                1       0       0       0       0       0       0       0
 9 STPG1               0       0       0       0       0       0       0       0
10 NIPAL3              0       0       0       0       0       0       0       0
# … with 30,109 more rows, 4,273 more variables: CCATCTATCAGG <dbl>,
#   AAGAAGTCCATT <dbl>, GCCGCAGAGTCA <dbl>, AACCTTCGCAAC <dbl>,
#   CTCTCCCCAATC <dbl>, TTTTATTTATAA <dbl>, CGTATCAGTATT <dbl>,
#   GTACTCTACAGA <dbl>, CAGTTTAGGAAA <dbl>, GTACCACCCTTC <dbl>,
#   ATGTGCACAGCA <dbl>, GTAGGTTAACTA <dbl>, CAGGGCCAGGCA <dbl>,
#   CGGGAACCCAAA <dbl>, GTGATTAGCCCA <dbl>, ATCTCCTTGTTA <dbl>,
#   CGGCTTATCGTA <dbl>, ACCCATCAAAGG <dbl>, GGCTGAGAGTCA <dbl>, …

cell_metadata = read_tsv("ref/polioudakis_neuron2020/TableS3_Cell_metadata.csv")

Rows: 33976 Columns: 14
── Column specification ────────────────────────────────────────────────────────
Delimiter: "\t"
chr (7): Cell, Cluster, Subcluster, Layer, Index, Library, Phase
dbl (7): Donor, Gestation_week, Number_genes_detected, Number_UMI, Percentag...

ℹ Use `spec()` to retrieve the full column specification for this data.
ℹ Specify the column types or set `show_col_types = FALSE` to quiet this message.

cell_metadata

# A tibble: 33,976 × 14
   Cell        Cluster Subcl…¹ Donor Layer Gesta…² Index Library Numbe…³ Numbe…⁴
   <chr>       <chr>   <chr>   <dbl> <chr>   <dbl> <chr> <chr>     <dbl>   <dbl>
 1 TGCTAATACT… vRG     vRG_0     368 CP         17 N701  Plath      1366    2736
 2 TTCACGATTT… vRG     vRG_2     368 GZ         17 N702  Plath      3012    7318
 3 CTGTCAGAAT… vRG     vRG_2     368 GZ         17 N702  Plath      1597    3451
 4 CATAATATGT… vRG     vRG_0     368 GZ         17 N702  Plath      1551    2941
 5 TGCCAATCCG… vRG     vRG_0     368 GZ         17 N702  Plath      1569    2769
 6 TCGACTATTT… vRG     vRG_2     368 GZ         17 N702  Plath      1610    2994
 7 GTTACCCGGC… vRG     vRG_1     368 GZ         17 N702  Plath      1227    2092
 8 GCCACCGATA… vRG     vRG_1     368 GZ         17 N702  Plath      1197    2057
 9 GGGCAGATGT… vRG     vRG_1     368 GZ         17 N702  Plath      1237    2221
10 TTGAGCGGTA… vRG     vRG_0     368 GZ         17 N702  Plath      1344    2393
# … with 33,966 more rows, 4 more variables: Percentage_mitochondrial <dbl>,
#   S_phase_score <dbl>, G2M_phase_score <dbl>, Phase <chr>, and abbreviated
#   variable names ¹​Subcluster, ²​Gestation_week, ³​Number_genes_detected,
#   ⁴​Number_UMI
…
gene_counts = inner_join(
  isoseq %>% mutate(
    cts_isoseq = rowSums(across(where(is.numeric))),
    .keep = "unused"
  ),
  short_read %>% mutate(
    cts_short_read = rowSums(across(where(is.numeric))),
    .keep = "unused"
  ),
  by = "gene_name"
) %>%
  filter(!if_any(starts_with("cts_"), ~.x == 0))
gene_counts

# A tibble: 13,946 × 3
   gene_name cts_isoseq cts_short_read
   <chr>          <dbl>          <dbl>
 1 A1BG              18              6
 2 A1BG-AS1           3              6
 3 A2M               22             57
 4 AAAS             169            288
 5 AACS              69            198
 6 AADAT             79            174
 7 AAGAB             62             82
 8 AAK1              64            479
 9 AAMDC             95            189
10 AAMP             298            401
# … with 13,936 more rows

gene_counts_logRPM = gene_counts %>%
  mutate(across(
    starts_with("cts_"),
    ~log2(1 + (.x / (sum(.x) / 1000000)))
  ))
gene_counts_logRPM

# A tibble: 13,946 × 3
   gene_name cts_isoseq cts_short_read
   <chr>          <dbl>          <dbl>
 1 A1BG           2.77           0.916
 2 A1BG-AS1       0.976          0.916
 3 A2M            3.02           3.24 
 4 AAAS           5.79           5.44 
 5 AACS           4.54           4.92 
 6 AADAT          4.73           4.74 
 7 AAGAB          4.39           3.71 
 8 AAK1           4.43           6.17 
 9 AAMDC          4.98           4.85 
10 AAMP           6.60           5.91 
# … with 13,936 more rows
…
UMI_counts = inner_join(
  short_read %>%
    select(-gene_name) %>%
    summarize(across(everything(), sum)) %>%
    pivot_longer(everything(), names_to = "UMI", values_to = "cts_short_read"),
  isoseq %>%
    select(-gene_name) %>%
    summarize(across(everything(), sum)) %>%
    pivot_longer(everything(), names_to = "UMI", values_to = "cts_isoseq"),
  by = "UMI"
)
UMI_counts

# A tibble: 4,281 × 3
   UMI          cts_short_read cts_isoseq
   <chr>                 <dbl>      <dbl>
 1 GTATAACATGAA           7756       3123
 2 CGAATATTCTGT           6478       2604
 3 TGGAACAGCAAT           5334       2524
 4 TACCCTGTAAGA           6227       2721
 5 CTCACTGAATGT           6731       3021
 6 ACAGCTCAGATA           5432       2452
 7 AGTCCCCCACTC           6623       3923
 8 AGGCTCCCATTT           5286       2998
 9 CCATCTATCAGG           5827       2671
10 AAGAAGTCCATT           4599       2187
# … with 4,271 more rows
…
isoseq_tx = read_tsv("data/AllBarcode_newID_4281.txt.gz")

Rows: 143490 Columns: 4283
── Column specification ────────────────────────────────────────────────────────
Delimiter: "\t"
chr    (2): gene_name, transcript_id
dbl (4281): ACGGCATAGTAC, ACTGACTGATCC, ACTGGCACCGAG, AGCTAGCCCATG, AGTTTAGC...

ℹ Use `spec()` to retrieve the full column specification for this data.
ℹ Specify the column types or set `show_col_types = FALSE` to quiet this message.

isoseq_tx

# A tibble: 143,490 × 4,283
   gene_name  transcri…¹ ACGGC…² ACTGA…³ ACTGG…⁴ AGCTA…⁵ AGTTT…⁶ ATCCG…⁷ CAGAC…⁸
   <chr>      <chr>        <dbl>   <dbl>   <dbl>   <dbl>   <dbl>   <dbl>   <dbl>
 1 AL669831.3 ENST00000…       0       0       0       0       0       0       0
 2 MTND1P23   ENST00000…       0       0       0       0       0       0       0
 3 MTND2P28   ENST00000…       0       0       0       0       0       0       0
 4 MTCO1P12   ENST00000…       0       0       0       0       1       0       1
 5 MTCO2P12   ENST00000…       0       0       0       0       0       0       0
 6 MTATP6P1   ENST00000…       0       0       0       0       0       0       0
 7 LINC01409  ENST00000…       0       0       0       0       0       0       0
 8 LINC01409  ENST00000…       0       0       0       0       0       0       0
 9 LINC01128  ENST00000…       0       0       0       0       0       0       0
10 LINC01128  ENST00000…       0       0       0       0       0       0       0
# … with 143,480 more rows, 4,274 more variables: CCCCCACTTAGC <dbl>,
#   GCCGTAAAACTC <dbl>, GGGCTGCTTATA <dbl>, GGTTGCTGTACG <dbl>,
#   GTAGCGAGATGC <dbl>, TCAGCTCACCCT <dbl>, TGACATTCTATT <dbl>,
#   TGGTGAACCAGA <dbl>, TTCTATGCCCGC <dbl>, AAAAATAAATTG <dbl>,
#   AAAACCGCGCAG <dbl>, AAAAGCAACGTG <dbl>, AAAGGCGCGCGG <dbl>,
#   AAATCAACTGTA <dbl>, AACCACGTTTAA <dbl>, AACGTACTATCG <dbl>,
#   AACTGCCTTGTA <dbl>, AAGATCCAAGGC <dbl>, AAGGCAGAATCT <dbl>, …

tx_per_cell = isoseq_tx %>% select(!(c(gene_name, transcript_id))) %>%
  summarize(across(everything(), ~sum(.x > 0))) %>%
  pivot_longer(everything())
tx_per_cell

# A tibble: 4,281 × 2
   name         value
   <chr>        <int>
 1 ACGGCATAGTAC   198
 2 ACTGACTGATCC   147
 3 ACTGGCACCGAG   129
 4 AGCTAGCCCATG   226
 5 AGTTTAGCGGTC   930
 6 ATCCGACCATCA   103
 7 CAGACGCGACAT   253
 8 CCCCCACTTAGC   115
 9 GCCGTAAAACTC    65
10 GGGCTGCTTATA   201
# … with 4,271 more rows
…
donor_counts_filt = read_tsv("data/AllBarcode_newID_byDonor_min3cells.txt.gz") %>%
  rename_with(~str_c("donor_", .x), .cols = where(is.numeric))

Rows: 84478 Columns: 5
── Column specification ────────────────────────────────────────────────────────
Delimiter: "\t"
chr (2): gene_name, transcript_id
dbl (3): 370, 371, 372

ℹ Use `spec()` to retrieve the full column specification for this data.
ℹ Specify the column types or set `show_col_types = FALSE` to quiet this message.

donor_counts_filt

# A tibble: 84,478 × 5
   gene_name transcript_id   donor_370 donor_371 donor_372
   <chr>     <chr>               <dbl>     <dbl>     <dbl>
 1 MTND1P23  ENST00000416931         0         3         0
 2 MTND2P28  ENST00000457540         3        52        38
 3 MTCO1P12  ENST00000414273         2         9        10
 4 LINC00115 ENST00000473798         4         6         9
 5 NOC2L     ENST00000327044        20        16        28
 6 NOC2L     ENST00000469563         7         9        14
 7 KLHL17    ENST00000338591         0         3         1
 8 HES4      ENST00000428771         7        28        36
 9 HES4      ENST00000304952        22        42        47
10 HES4      ENST00000481869        17        35        37
# … with 84,468 more rows

donor_counts_filt = donor_counts_filt %>% filter(transcript_id %in% str_extract(cpgz$transcript_id, "^[^\\.]*"))
donor_counts_filt

# A tibble: 84,224 × 5
   gene_name transcript_id   donor_370 donor_371 donor_372
   <chr>     <chr>               <dbl>     <dbl>     <dbl>
 1 MTND1P23  ENST00000416931         0         3         0
 2 MTND2P28  ENST00000457540         3        52        38
 3 MTCO1P12  ENST00000414273         2         9        10
 4 LINC00115 ENST00000473798         4         6         9
 5 NOC2L     ENST00000327044        20        16        28
 6 NOC2L     ENST00000469563         7         9        14
 7 KLHL17    ENST00000338591         0         3         1
 8 HES4      ENST00000428771         7        28        36
 9 HES4      ENST00000304952        22        42        47
10 HES4      ENST00000481869        17        35        37
# … with 84,214 more rows
cpgz.exons = cpgz[cpgz$type == "exon" & str_extract(cpgz$transcript_id, "^[^\\.]*") %in% donor_counts_filt$transcript_id]
cpgz.exons.by.gene = split(cpgz.exons, cpgz.exons$gene_name)
donor_counts_filt = donor_counts_filt %>% left_join(
  enframe(
    sum(width(reduce(ranges(cpgz.exons.by.gene)))), # calculate exonic width
    name = "gene_name",
    value = "gene_length"
  )
)

Joining, by = "gene_name"

donor_counts_filt

# A tibble: 84,224 × 6
   gene_name transcript_id   donor_370 donor_371 donor_372 gene_length
   <chr>     <chr>               <dbl>     <dbl>     <dbl>       <int>
 1 MTND1P23  ENST00000416931         0         3         0         372
 2 MTND2P28  ENST00000457540         3        52        38        1044
 3 MTCO1P12  ENST00000414273         2         9        10        1543
 4 LINC00115 ENST00000473798         4         6         9        1317
 5 NOC2L     ENST00000327044        20        16        28        4572
 6 NOC2L     ENST00000469563         7         9        14        4572
 7 KLHL17    ENST00000338591         0         3         1        2567
 8 HES4      ENST00000428771         7        28        36        1675
 9 HES4      ENST00000304952        22        42        47        1675
10 HES4      ENST00000481869        17        35        37        1675
# … with 84,214 more rows

wrong but matches old plots:

total = sum(donor_counts_filt %>% select(starts_with("donor_")))
donor_counts_filt_logRPM_wrong = donor_counts_filt %>%
  mutate(across(
    starts_with("donor_"),
    ~log10(1 + (.x / (total / 1000000)))
  ))
donor_counts_filt_logRPM_wrong

# A tibble: 84,224 × 6
   gene_name transcript_id   donor_370 donor_371 donor_372 gene_length
   <chr>     <chr>               <dbl>     <dbl>     <dbl>       <int>
 1 MTND1P23  ENST00000416931     0         0.288     0             372
 2 MTND2P28  ENST00000457540     0.288     1.24      1.11         1044
 3 MTCO1P12  ENST00000414273     0.212     0.583     0.617        1543
 4 LINC00115 ENST00000473798     0.354     0.460     0.583        1317
 5 NOC2L     ENST00000327044     0.863     0.780     0.991        4572
 6 NOC2L     ENST00000469563     0.505     0.583     0.732        4572
 7 KLHL17    ENST00000338591     0         0.288     0.119        2567
 8 HES4      ENST00000428771     0.505     0.991     1.09         1675
 9 HES4      ENST00000304952     0.898     1.15      1.20         1675
10 HES4      ENST00000481869     0.802     1.08      1.10         1675
# … with 84,214 more rows

correctly calculate logRPM:

donor_counts_filt_logRPM = donor_counts_filt %>%
  mutate(across(
    starts_with("donor_"),
    ~log10(1 + (.x / (sum(.x) / 1000000)))
  ))
donor_counts_filt_logRPM

# A tibble: 84,224 × 6
   gene_name transcript_id   donor_370 donor_371 donor_372 gene_length
   <chr>     <chr>               <dbl>     <dbl>     <dbl>       <int>
 1 MTND1P23  ENST00000416931     0         0.565     0             372
 2 MTND2P28  ENST00000457540     0.816     1.68      1.42         1044
 3 MTCO1P12  ENST00000414273     0.672     0.955     0.880        1543
 4 LINC00115 ENST00000473798     0.924     0.803     0.841        1317
 5 NOC2L     ENST00000327044     1.58      1.18      1.29         4572
 6 NOC2L     ENST00000469563     1.14      0.955     1.01         4572
 7 KLHL17    ENST00000338591     0         0.565     0.220        2567
 8 HES4      ENST00000428771     1.14      1.41      1.39         1675
 9 HES4      ENST00000304952     1.62      1.58      1.50         1675
10 HES4      ENST00000481869     1.51      1.51      1.40         1675
# … with 84,214 more rows

correctly calculate logTPM:

donor_counts_filt_logTPM = donor_counts_filt %>%
  mutate(across(
    starts_with("donor_"),
    ~log10(1 + ((.x / (gene_length / 1000)) / (sum(.x) / 1000000)))
  ))
donor_counts_filt_logTPM

# A tibble: 84,224 × 6
   gene_name transcript_id   donor_370 donor_371 donor_372 gene_length
   <chr>     <chr>               <dbl>     <dbl>     <dbl>       <int>
 1 MTND1P23  ENST00000416931     0         0.913    0              372
 2 MTND2P28  ENST00000457540     0.800     1.66     1.40          1044
 3 MTCO1P12  ENST00000414273     0.531     0.792    0.722         1543
 4 LINC00115 ENST00000473798     0.820     0.704    0.740         1317
 5 NOC2L     ENST00000327044     0.958     0.615    0.702         4572
 6 NOC2L     ENST00000469563     0.583     0.440    0.480         4572
 7 KLHL17    ENST00000338591     0         0.310    0.0992        2567
 8 HES4      ENST00000428771     0.941     1.20     1.18          1675
 9 HES4      ENST00000304952     1.40      1.37     1.29          1675
10 HES4      ENST00000481869     1.30      1.29     1.19          1675
# … with 84,214 more rows
…
cpgz.exons = cpgz[cpgz$type == "exon" & str_extract(cpgz$transcript_id, "^[^\\.]*") %in% donor_counts_filt$transcript_id]
cpgz.exons.by.gene = split(cpgz.exons, cpgz.exons$gene_name)
donor_counts_filt = donor_counts_filt %>% left_join(
  enframe(
    sum(width(reduce(ranges(cpgz.exons.by.gene)))), # calculate exonic width
    name = "gene_name",
    value = "gene_length"
  )
)

Joining, by = c("gene_name", "gene_length")

donor_counts_filt

# A tibble: 84,224 × 6
   gene_name transcript_id   donor_370 donor_371 donor_372 gene_length
   <chr>     <chr>               <dbl>     <dbl>     <dbl>       <int>
 1 MTND1P23  ENST00000416931         0         3         0         372
 2 MTND2P28  ENST00000457540         3        52        38        1044
 3 MTCO1P12  ENST00000414273         2         9        10        1543
 4 LINC00115 ENST00000473798         4         6         9        1317
 5 NOC2L     ENST00000327044        20        16        28        4572
 6 NOC2L     ENST00000469563         7         9        14        4572
 7 KLHL17    ENST00000338591         0         3         1        2567
 8 HES4      ENST00000428771         7        28        36        1675
 9 HES4      ENST00000304952        22        42        47        1675
10 HES4      ENST00000481869        17        35        37        1675
# … with 84,214 more rows

donor_gene_counts = donor_counts_filt %>% group_by(gene_name) %>%
  summarize(across(starts_with("donor_"), sum), gene_length = dplyr::first(gene_length)) %>%
  mutate(
    gene_length = gene_length / 1000,
    across(starts_with("donor_"), ~.x / (sum(.x) / 1000000))
  ) %>%
  mutate(
    across(where(is.numeric), ~log10(.x + 1))
  ) #%>%
#  mutate(across(starts_with("donor_"), ~na_if(.x, 0)))
donor_gene_counts

# A tibble: 14,177 × 5
   gene_name donor_370 donor_371 donor_372 gene_length
   <chr>         <dbl>     <dbl>     <dbl>       <dbl>
 1 A1BG          0.816     0.565     0.950       0.496
 2 A2M           0.672     0.910     0.695       0.488
 3 AAAS          1.71      1.81      1.65        0.717
 4 AACS          1.40      1.44      1.19        0.995
 5 AADAT         1.25      1.41      1.36        1.01 
 6 AAGAB         1.14      1.44      1.17        0.972
 7 AAK1          1.40      1.25      1.29        0.939
 8 AAMDC         1.58      1.44      1.42        0.322
 9 AAMP          1.82      1.93      2.00        0.646
10 AAR2          1.49      1.18      1.34        0.568
# … with 14,167 more rows
…
