Dev Brain Iso-Seq - Figure 4 - Networks Enrichments
…
dev.off()

# A tibble: 290 × 12
# Groups:   module [29]
   transcr…¹ module modul…² modul…³   kME kMEto…⁴ gene_id trans…⁵ length gene_…⁶
   <chr>     <chr>  <chr>     <dbl> <dbl> <chr>   <chr>   <chr>    <dbl> <chr>  
 1 ENST0000… M1.tu… turquo…       1 0.996 1       ENSG00… PKM-202   2305 PKM    
 2 ENST0000… M1.tu… turquo…       1 0.992 1       ENSG00… CTNNA1…   3754 CTNNA1 
 3 ENST0000… M1.tu… turquo…       1 0.992 1       ENSG00… SMARCE…   5150 SMARCE1
 4 ENST0000… M1.tu… turquo…       1 0.992 1       ENSG00… USP5-2…   3083 USP5   
 5 ENST0000… M1.tu… turquo…       1 0.990 1       ENSG00… TRIM9-…   5284 TRIM9  
 6 ENST0000… M1.tu… turquo…       1 0.989 1       ENSG00… TWF1-2…   3045 TWF1   
 7 ENST0000… M1.tu… turquo…       1 0.988 1       ENSG00… SSR1-2…   9661 SSR1   
 8 ENST0000… M1.tu… turquo…       1 0.987 1       ENSG00… RPN2-2…   2227 RPN2   
 9 ENST0000… M1.tu… turquo…       1 0.987 1       ENSG00… DPF2-2…   3714 DPF2   
10 ENST0000… M1.tu… turquo…       1 0.986 1       ENSG00… DYNC1I…   2572 DYNC1I2
# … with 280 more rows, 2 more variables: ensg <chr>, novelty <chr>, and
#   abbreviated variable names ¹​transcript_id, ²​module.color, ³​module.number,
#   ⁴​kMEtoMod, ⁵​transcript_name, ⁶​gene_name
…
dev.off()

# A tibble: 530 × 12
# Groups:   module [53]
   transcr…¹ module modul…² modul…³   kME kMEto…⁴ gene_id trans…⁵ length gene_…⁶
   <chr>     <chr>  <chr>     <dbl> <dbl> <chr>   <chr>   <chr>    <dbl> <chr>  
 1 TALONT00… M1.tu… turquo…       1 0.995 1       ENSG00… ABLIM3…   4338 ABLIM3 
 2 ENST0000… M1.tu… turquo…       1 0.994 1       ENSG00… DYNC1I…   2947 DYNC1I1
 3 ENST0000… M1.tu… turquo…       1 0.992 1       ENSG00… NCDN-2…   3677 NCDN   
 4 ENST0000… M1.tu… turquo…       1 0.992 1       ENSG00… HS3ST5…   3901 HS3ST5 
 5 ENST0000… M1.tu… turquo…       1 0.991 1       ENSG00… SULT4A…   2478 SULT4A1
 6 ENST0000… M1.tu… turquo…       1 0.991 1       ENSG00… JPH4-2…   4265 JPH4   
 7 ENST0000… M1.tu… turquo…       1 0.990 1       ENSG00… SRD5A1…   7035 SRD5A1 
 8 TALONT00… M1.tu… turquo…       1 0.990 1       ENSG00… CDH13_…   3659 CDH13  
 9 ENST0000… M1.tu… turquo…       1 0.990 1       ENSG00… SATB2-…   1663 SATB2-…
10 ENST0000… M1.tu… turquo…       1 0.990 1       ENSG00… SOSTDC…   1758 SOSTDC1
# … with 520 more rows, 2 more variables: ensg <chr>, novelty <chr>, and
#   abbreviated variable names ¹​transcript_id, ²​module.color, ³​module.number,
#   ⁴​kMEtoMod, ⁵​transcript_name, ⁶​gene_name
…
