Dev Brain scIso-Seq CP/VZ - Figure 3 - IsoformSwitchAnalyzeR
…
    gene_id = "annot_gene_id",
    transcript_id = "annot_transcript_id",
    gene_name = "annot_gene_name"
  ) %>%
  mutate(
    gene_novelty = as.factor(gene_novelty),
    transcript_novelty = as.factor(transcript_novelty),
    ISM_subtype = ISM_subtype %>% na_if("None") %>% as.factor()
  )
talonExpression = cts %>%
  dplyr::select(transcript_id, starts_with(c("VZ", "CP"))) %>%
  dplyr::rename(isoform_id = "transcript_id")
talonExpression

# A tibble: 214,516 × 7
   isoform_id          VZ_209 VZ_334 VZ_336 CP_209 CP_334 CP_336
   <chr>                <dbl>  <dbl>  <dbl>  <dbl>  <dbl>  <dbl>
 1 ENST00000494149.2_2      0      0      2      0      0      0
 2 ENST00000424587.2        0      0      0      0      0      2
 3 ENST00000445840.1        1      1      0      0      0      0
 4 ENST00000457540.1_1      0      1      1      0      0      0
 5 ENST00000414273.1_1      0      0      1      0      0      0
 6 ENST00000655765.1_2      0      2      0      2      1      2
 7 ENST00000457084.1_2      0      2      0      0      0      0
 8 ENST00000591702.1_2      1      0      2      2      0      0
 9 ENST00000644482.1_1      3      0      0      0      0      0
10 ENST00000445118.7_3      1      0      0      8      0      0
# … with 214,506 more rows
…
Run DESeq2

DTE

cts_preFilter = talonExpression %>% filter(isoform_id %in% talonSwitchList$isoformFeatures$isoform_id)
cts_preFilter

# A tibble: 102,319 × 7
   isoform_id           VZ_209 VZ_334 VZ_336 CP_209 CP_334 CP_336
   <chr>                 <dbl>  <dbl>  <dbl>  <dbl>  <dbl>  <dbl>
 1 ENST00000669922.1_2       4     10      4      6      9     10
 2 ENST00000659124.1_2       4      0      0      9      0      0
 3 ENST00000441765.6_3       1      0      0      0      1      0
 4 ENST00000668541.1_2       0      0      0      5      1      5
 5 ENST00000327044.7_3     283    672    708    804    820    665
 6 ENST00000428771.6_3       0      1      0      0      2      0
 7 ENST00000304952.10_3      0     25     41      3      5     16
 8 ENST00000481869.1_2       0      6      4      2      2      6
 9 ENST00000484667.2_2       0      4      5      0      0      9
10 ENST00000379370.7_2       4     12      7      9     34      8
# … with 102,309 more rows
…
cts_gene_preFilter = cts_gene %>%
  filter(gene_id %in% unique(cts$gene_id)) %>% # Filtering for those with at least one detected isoform
  dplyr::select(gene_id, starts_with(c("VZ", "CP")))
cts_gene_preFilter

# A tibble: 24,554 × 7
   gene_id              VZ_209 VZ_334 VZ_336 CP_209 CP_334 CP_336
   <chr>                 <dbl>  <dbl>  <dbl>  <dbl>  <dbl>  <dbl>
 1 ENSG00000000003.15_4    443    993    812    335    483    305
 2 ENSG00000000419.12_5     30    119    108    388    123    311
 3 ENSG00000000457.14_6    149    300    222    192    149    148
 4 ENSG00000000460.17_6    103    423    275     99    132     76
 5 ENSG00000000938.13_5      0      3     10     14      4     11
 6 ENSG00000000971.16_3     13     17     23     21     26      9
 7 ENSG00000001036.14_4    206    243    415    163    105    205
 8 ENSG00000001084.13_9     49     73     51     54     65     44
 9 ENSG00000001167.14_3    184    401    249    436    525    286
10 ENSG00000001460.18_6      5      9     15     44     21     42
# … with 24,544 more rows
…
Feature analyzed:
[1] "Isoform Switch Identification, ntSequence, ORFs, aaSequence"

WARNING: extractSequence() silently caches its result in switchList$aaSequence. If this object exists, extractSequence() will return the same result, no matter if you adjust alpha, dIFcutoff, or even re-run isoformSwitchTestDEXSeq().

What are the exact isoforms extractSequence() will return sequences for? (Slightly fewer if removeShortAAseq = TRUE)

orf_isoforms = talonSwitchList_part1$orfAnalysis %>% as_tibble() %>%
  drop_na(orfTransciptStart) %>%
  pull(isoform_id)
talonSwitchList_part1$isoformFeatures %>% as_tibble() %>%
  group_by(gene_id) %>% filter(any(isoform_switch_q_value < 0.05 & abs(dIF) > 0.1)) %>% ungroup() %>%
  filter(isoform_id %in% orf_isoforms)

# A tibble: 12,026 × 30
   iso_ref       gene_…¹ isofo…² gene_id condi…³ condi…⁴ gene_…⁵ gene_…⁶ iso_b…⁷
   <chr>         <chr>   <chr>   <chr>   <chr>   <chr>   <chr>   <chr>   <chr>  
 1 isoComp_0000… geneCo… ENST00… ENSG00… VZ      CP      TSPAN6  protei… protei…
 2 isoComp_0000… geneCo… TALONT… ENSG00… VZ      CP      TSPAN6  protei… <NA>   
 3 isoComp_0000… geneCo… TALONT… ENSG00… VZ      CP      TSPAN6  protei… <NA>   
 4 isoComp_0000… geneCo… TALONT… ENSG00… VZ      CP      TSPAN6  protei… <NA>   
 5 isoComp_0000… geneCo… TALONT… ENSG00… VZ      CP      TSPAN6  protei… <NA>   
 6 isoComp_0000… geneCo… TALONT… ENSG00… VZ      CP      TSPAN6  protei… <NA>   
 7 isoComp_0000… geneCo… TALONT… ENSG00… VZ      CP      TSPAN6  protei… <NA>   
 8 isoComp_0000… geneCo… ENST00… ENSG00… VZ      CP      C1orf1… protei… protei…
 9 isoComp_0000… geneCo… ENST00… ENSG00… VZ      CP      C1orf1… protei… protei…
10 isoComp_0000… geneCo… ENST00… ENSG00… VZ      CP      C1orf1… protei… protei…
# … with 12,016 more rows, 21 more variables: gene_overall_mean <dbl>,
#   gene_value_1 <dbl>, gene_value_2 <dbl>, gene_stderr_1 <dbl>,
#   gene_stderr_2 <dbl>, gene_log2_fold_change <dbl>, gene_q_value <dbl>,
#   iso_overall_mean <dbl>, iso_value_1 <dbl>, iso_value_2 <dbl>,
#   iso_stderr_1 <dbl>, iso_stderr_2 <dbl>, iso_log2_fold_change <dbl>,
#   iso_q_value <dbl>, IF_overall <dbl>, IF1 <dbl>, IF2 <dbl>, dIF <dbl>,
#   isoform_switch_q_value <dbl>, gene_switch_q_value <dbl>, PTC <lgl>, and …

Table S3

What genes does IsoformSwitchAnalyzeR think are significant?

extractTopSwitches(
  talonSwitchList_part1, filterForConsequences = FALSE, n=Inf
) %>%  as_tibble()

# A tibble: 1,237 × 7
   gene_ref          gene_id             gene_…¹ condi…² condi…³ gene_sw…⁴  Rank
   <chr>             <chr>               <chr>   <chr>   <chr>       <dbl> <int>
 1 geneComp_00001085 ENSG00000073584.20… SMARCE1 VZ      CP      1.03e-211     1
 2 geneComp_00000969 ENSG00000070087.14… PFN2    VZ      CP      6.32e-118     2
 3 geneComp_00008384 ENSG00000155849.15… ELMO1   VZ      CP      3.74e-116     3
 4 geneComp_00000525 ENSG00000044115.21… CTNNA1  VZ      CP      3.84e-103     4
 5 geneComp_00005804 ENSG00000133884.10… DPF2    VZ      CP      4.94e- 95     5
 6 geneComp_00020536 ENSG00000263001.6_6 GTF2I   VZ      CP      9.35e- 94     6
 7 geneComp_00001542 ENSG00000087274.17… ADD1    VZ      CP      2.19e- 85     7
 8 geneComp_00003418 ENSG00000111667.13… USP5    VZ      CP      6.38e- 83     8
 9 geneComp_00004817 ENSG00000124783.14… SSR1    VZ      CP      2.45e- 80     9
10 geneComp_00000441 ENSG00000033627.16… ATP6V0… VZ      CP      4.61e- 74    10
# … with 1,227 more rows, and abbreviated variable names ¹​gene_name,
#   ²​condition_1, ³​condition_2, ⁴​gene_switch_q_value

talonSwitchList_part1$isoformFeatures %>% as_tibble() %>%
  group_by(gene_ref, gene_id, gene_name, condition_1, condition_2, gene_switch_q_value) %>%
  filter(any(isoform_switch_q_value < 0.05 & abs(dIF) > 0.1)) %>%
  summarize() %>%
  arrange(gene_switch_q_value)

`summarise()` has grouped output by 'gene_ref', 'gene_id', 'gene_name',
'condition_1', 'condition_2'. You can override using the `.groups` argument.

# A tibble: 1,237 × 6
# Groups:   gene_ref, gene_id, gene_name, condition_1, condition_2 [1,237]
   gene_ref          gene_id              gene_name conditio…¹ condi…² gene_sw…³
   <chr>             <chr>                <chr>     <chr>      <chr>       <dbl>
 1 geneComp_00001085 ENSG00000073584.20_8 SMARCE1   VZ         CP      1.03e-211
 2 geneComp_00000969 ENSG00000070087.14_5 PFN2      VZ         CP      6.32e-118
 3 geneComp_00008384 ENSG00000155849.15_4 ELMO1     VZ         CP      3.74e-116
 4 geneComp_00000525 ENSG00000044115.21_7 CTNNA1    VZ         CP      3.84e-103
 5 geneComp_00005804 ENSG00000133884.10_4 DPF2      VZ         CP      4.94e- 95
 6 geneComp_00020536 ENSG00000263001.6_6  GTF2I     VZ         CP      9.35e- 94
 7 geneComp_00001542 ENSG00000087274.17_6 ADD1      VZ         CP      2.19e- 85
 8 geneComp_00003418 ENSG00000111667.13_4 USP5      VZ         CP      6.38e- 83
 9 geneComp_00004817 ENSG00000124783.14_6 SSR1      VZ         CP      2.45e- 80
10 geneComp_00000441 ENSG00000033627.16_4 ATP6V0A1  VZ         CP      4.61e- 74
# … with 1,227 more rows, and abbreviated variable names ¹​condition_1,
#   ²​condition_2, ³​gene_switch_q_value

What transcripts does IsoformSwitchAnalyzeR think are significant?

extractTopSwitches(
  talonSwitchList_part1, extractGenes = FALSE, filterForConsequences = FALSE, n=Inf
) %>%  as_tibble()

Warning in .fun(piece, ...): Less than n genes genes with significant switches
were found. Returning those.

# A tibble: 1,860 × 12
   iso_ref    gene_…¹ isofo…² gene_id gene_…³ condi…⁴ condi…⁵   IF1   IF2    dIF
   <chr>      <chr>   <chr>   <chr>   <chr>   <chr>   <chr>   <dbl> <dbl>  <dbl>
 1 isoComp_0… geneCo… ENST00… ENSG00… SMARCE1 VZ      CP      0.57  0.164 -0.405
 2 isoComp_0… geneCo… ENST00… ENSG00… PFN2    VZ      CP      0.25  0.021 -0.228
 3 isoComp_0… geneCo… ENST00… ENSG00… ELMO1   VZ      CP      0.404 0.024 -0.38 
 4 isoComp_0… geneCo… ENST00… ENSG00… CTNNA1  VZ      CP      0.541 0.129 -0.413
 5 isoComp_0… geneCo… ENST00… ENSG00… DPF2    VZ      CP      0.082 0.553  0.47 
 6 isoComp_0… geneCo… ENST00… ENSG00… GTF2I   VZ      CP      0.128 0.017 -0.111
 7 isoComp_0… geneCo… TALONT… ENSG00… ADD1    VZ      CP      0.31  0.059 -0.251
 8 isoComp_0… geneCo… ENST00… ENSG00… CTNNA1  VZ      CP      0.124 0.32   0.197
 9 isoComp_0… geneCo… ENST00… ENSG00… USP5    VZ      CP      0.314 0.693  0.379
10 isoComp_0… geneCo… ENST00… ENSG00… USP5    VZ      CP      0.561 0.185 -0.376
# … with 1,850 more rows, 2 more variables: isoform_switch_q_value <dbl>,
#   Rank <int>, and abbreviated variable names ¹​gene_ref, ²​isoform_id,
#   ³​gene_name, ⁴​condition_1, ⁵​condition_2

talonSwitchList_part1$isoformFeatures %>% as_tibble() %>%
  filter(isoform_switch_q_value < 0.05 & abs(dIF) > 0.1) %>%
  dplyr::select(iso_ref, gene_ref, isoform_id, gene_id, gene_name, condition_1, condition_2, IF1, IF2, dIF, isoform_switch_q_value) %>%
  arrange(isoform_switch_q_value)

# A tibble: 1,860 × 11
   iso_ref  gene_…¹ isofo…² gene_id gene_…³ condi…⁴ condi…⁵    IF1    IF2    dIF
   <chr>    <chr>   <chr>   <chr>   <chr>   <chr>   <chr>    <dbl>  <dbl>  <dbl>
 1 isoComp… geneCo… ENST00… ENSG00… SMARCE1 VZ      CP      0.570  0.164  -0.405
 2 isoComp… geneCo… ENST00… ENSG00… PFN2    VZ      CP      0.250  0.0213 -0.228
 3 isoComp… geneCo… ENST00… ENSG00… ELMO1   VZ      CP      0.404  0.0237 -0.380
 4 isoComp… geneCo… ENST00… ENSG00… CTNNA1  VZ      CP      0.541  0.129  -0.413
 5 isoComp… geneCo… ENST00… ENSG00… DPF2    VZ      CP      0.0823 0.553   0.470
 6 isoComp… geneCo… ENST00… ENSG00… GTF2I   VZ      CP      0.128  0.0167 -0.111
 7 isoComp… geneCo… TALONT… ENSG00… ADD1    VZ      CP      0.310  0.059  -0.251
 8 isoComp… geneCo… ENST00… ENSG00… CTNNA1  VZ      CP      0.124  0.320   0.197
 9 isoComp… geneCo… ENST00… ENSG00… USP5    VZ      CP      0.314  0.693   0.379
10 isoComp… geneCo… ENST00… ENSG00… USP5    VZ      CP      0.561  0.185  -0.376
# … with 1,850 more rows, 1 more variable: isoform_switch_q_value <dbl>, and
#   abbreviated variable names ¹​gene_ref, ²​isoform_id, ³​gene_name,
#   ⁴​condition_1, ⁵​condition_2
…
Joining with `by = join_by(isoform_id)`
Joining with `by = join_by(isoform_id)`
Joining with `by = join_by(gene_id)`

tableS3

# A tibble: 102,319 × 17
   isoform_id   gene_id gene_…¹ condi…² condi…³  DTU_dIF DTU_pval DTU_qval DTU  
   <chr>        <chr>   <chr>   <chr>   <chr>      <dbl>    <dbl>    <dbl> <lgl>
 1 ENST0000037… ENSG00… TSPAN6  VZ      CP      -0.347   4.89e-14 9.84e-12 TRUE 
 2 TALONT00074… ENSG00… TSPAN6  VZ      CP       0.140   1.42e- 8 1.23e- 6 TRUE 
 3 TALONT00074… ENSG00… TSPAN6  VZ      CP       0.196   1.36e- 6 7.89e- 5 TRUE 
 4 TALONT00074… ENSG00… TSPAN6  VZ      CP       0.00667 6.29e- 1 9.24e- 1 FALSE
 5 TALONT00074… ENSG00… TSPAN6  VZ      CP      -0.00633 4.95e- 1 8.74e- 1 FALSE
 6 TALONT00074… ENSG00… TSPAN6  VZ      CP      -0.00867 1.89e- 1 6.47e- 1 FALSE
 7 TALONT00074… ENSG00… TSPAN6  VZ      CP       0.017   1.48e- 3 3.08e- 2 TRUE 
 8 ENST0000037… ENSG00… DPM1    VZ      CP      -0.0317  8.43e- 1 9.76e- 1 FALSE
 9 ENST0000037… ENSG00… DPM1    VZ      CP      -0.0273  2.34e- 1 7.00e- 1 FALSE
10 ENST0000037… ENSG00… DPM1    VZ      CP       0.0993  1.48e- 1 5.89e- 1 FALSE
# … with 102,309 more rows, 8 more variables: DTE_log2FC <dbl>, DTE_pval <dbl>,
#   DTE_qval <dbl>, DTE <lgl>, DGE_log2FC <dbl>, DGE_pval <dbl>,
#   DGE_qval <dbl>, DGE <lgl>, and abbreviated variable names ¹​gene_name,
#   ²​condition_1, ³​condition_2
…
Alternative TSS isoform switches

TSS_switches =talonSwitchList_part2$switchConsequence %>% as_tibble() %>% 
  filter(featureCompared == 'tss', isoformsDifferent==TRUE) %>% 
  dplyr::select(gene_name, isoformUpregulated, isoformDownregulated) %>%
  left_join(talonSwitchList_part2$isoformFeatures %>% dplyr::select(isoformUpregulated=isoform_id, dIF, isoform_switch_q_value)) 

Joining with `by = join_by(isoformUpregulated)`

# Top 10 TSS switches by isoform fraction
TSS_switches%>% arrange(-abs(dIF))

# A tibble: 2,452 × 5
   gene_name isoformUpregulated   isoformDownregulated   dIF isoform_switch_q_…¹
   <chr>     <chr>                <chr>                <dbl>               <dbl>
 1 S100A16   ENST00000368705.2_2  ENST00000368706.9_3  0.811            5.86e- 3
 2 CPVL      TALONT000753261      ENST00000265394.10_3 0.769            7.02e-16
 3 ZNF358    ENST00000596712.1_3  ENST00000597229.2_2  0.766            7.57e- 4
 4 PLAUR     ENST00000340093.8_5  TALONT000368020      0.697            5.55e- 8
 5 ELMO1     ENST00000396045.7_2  ENST00000310758.8_2  0.654            1.67e-39
 6 ELMO1     ENST00000396045.7_2  ENST00000448602.5_2  0.654            1.67e-39
 7 ELMO1     ENST00000396045.7_2  TALONT000761865      0.654            1.67e-39
 8 BIN1      ENST00000316724.10_4 ENST00000348750.8_3  0.624            1.51e- 5
 9 BIN1      ENST00000316724.10_4 ENST00000393040.7_3  0.624            1.51e- 5
10 BIN1      ENST00000316724.10_4 ENST00000409400.1_4  0.624            1.51e- 5
# … with 2,442 more rows, and abbreviated variable name ¹​isoform_switch_q_value
…
# Top 10 TSS switches by q-value
TSS_switches%>% arrange(isoform_switch_q_value)

# A tibble: 2,452 × 5
   gene_name isoformUpregulated   isoformDownregulated   dIF isoform_switch_q_…¹
   <chr>     <chr>                <chr>                <dbl>               <dbl>
 1 CTNNA1    ENST00000540387.5_1  ENST00000302763.12_2 0.197            1.04e-83
 2 PKM       TALONT000323027      TALONT000323086      0.453            9.72e-73
 3 TPM1      ENST00000334895.10_2 ENST00000358278.7_3  0.475            4.54e-65
 4 TPM1      ENST00000334895.10_2 ENST00000558868.5_1  0.475            4.54e-65
 5 TPM1      ENST00000334895.10_2 ENST00000560959.5_1  0.475            4.54e-65
 6 KIF2A     ENST00000407818.7_2  ENST00000401507.7_2  0.276            1.96e-54
 7 KIF2A     ENST00000407818.7_2  TALONT000664196      0.276            1.96e-54
 8 ABAT      ENST00000396600.6_1  ENST00000268251.13_2 0.317            4.11e-51
 9 ABAT      ENST00000396600.6_1  ENST00000425191.6_1  0.317            4.11e-51
10 ABAT      ENST00000396600.6_1  TALONT000412117      0.317            4.11e-51
# … with 2,442 more rows, and abbreviated variable name ¹​isoform_switch_q_value
…
