Dev Brain Iso-Seq - Figure 3 - APA
…
library(gprofiler2)

#Order significant genes by descending vz.cp.diff
vz.cp.neg.sig <- vz.cp.neg.sig %>% arrange(vz.cp.diff) ## Ordered by effect size
vz.cp.pos.sig <- vz.cp.pos.sig %>% arrange(-vz.cp.diff) ## Ordered by effect size
all.sig <- rbind(vz.cp.neg.sig, vz.cp.pos.sig)
all.sig <- all.sig %>% arrange(-abs(vz.cp.diff))

gostres.neg <- gost(query = vz.cp.neg.sig$geneNames, organism = "hsapiens", ordered_query = FALSE, significant = TRUE, custom_bg = PDUIS.averaged.stats$geneNames, correction_method = "fdr",sources = c("GO", "KEGG", "REAC"))

Detected custom background input, domain scope is set to 'custom'

as_tibble(gostres.neg$result)

# A tibble: 64 × 14
   query   signi…¹ p_value term_…² query…³ inter…⁴ preci…⁵ recall term_id source
   <chr>   <lgl>     <dbl>   <int>   <int>   <int>   <dbl>  <dbl> <chr>   <chr> 
 1 query_1 TRUE    3.00e-5    5445     653     510  0.781  0.0937 GO:000… GO:CC 
 2 query_1 TRUE    1.59e-4    2462     653     259  0.397  0.105  GO:004… GO:CC 
 3 query_1 TRUE    1.59e-4    2462     653     259  0.397  0.105  GO:004… GO:CC 
 4 query_1 TRUE    1.59e-4    2775     653     287  0.440  0.103  GO:003… GO:CC 
 5 query_1 TRUE    1.59e-4      59     653      18  0.0276 0.305  GO:001… GO:CC 
 6 query_1 TRUE    5.03e-4    2522     653     261  0.400  0.103  GO:003… GO:CC 
 7 query_1 TRUE    4.07e-3    2998     653     294  0.450  0.0981 GO:007… GO:CC 
 8 query_1 TRUE    4.07e-3     163     653      29  0.0444 0.178  GO:003… GO:CC 
 9 query_1 TRUE    4.07e-3    2998     653     294  0.450  0.0981 GO:003… GO:CC 
10 query_1 TRUE    4.07e-3    2998     653     294  0.450  0.0981 GO:004… GO:CC 
# … with 54 more rows, 4 more variables: term_name <chr>,
#   effective_domain_size <int>, source_order <int>, parents <list>, and
#   abbreviated variable names ¹​significant, ²​term_size, ³​query_size,
#   ⁴​intersection_size, ⁵​precision
…
