Dev Brain Iso-Seq - Figure 2 - Isoform Fraction analysis
…
`summarise()` has grouped output by 'gene_id'. You can override using the
`.groups` argument.

datExpr.gene <- datExpr.gene %>% left_join(datExpr.gene %>% group_by(sample) %>% summarise(read_depth = sum(gene_counts)))

Joining, by = "sample"

expressed_genes_with_multiple_isoforms <- datExpr.gene %>% group_by(gene_id) %>% summarise(samples_expressed=sum(gene_counts/(read_depth/1000000)>1)) %>% filter(samples_expressed >=3) %>% dplyr::select(gene_id) %>% pull()

datExpr.tx <- datExpr.tx %>% filter(gene_id %in% expressed_genes_with_multiple_isoforms) %>% left_join(datExpr.gene, by=c("gene_id", "sample")) %>% mutate(iso_usage=counts/gene_counts)
datExpr.tx$iso_usage[is.na(datExpr.tx$iso_usage)] = 0

datExpr.tx %>% group_by(gene_id) %>% summarise(expr=sum(iso_usage>0)) %>% arrange(expr)

# A tibble: 12,958 × 2
   gene_id               expr
   <chr>                <int>
 1 ENSG00000010932.17_3     4
 2 ENSG00000162882.15_4     5
 3 ENSG00000165478.7_4      5
 4 ENSG00000188820.13_5     5
 5 ENSG00000264449.6_6      5
 6 ENSG00000075651.16_5     6
 7 ENSG00000077092.19_5     6
 8 ENSG00000081138.14_4     6
 9 ENSG00000081320.11_5     6
10 ENSG00000101955.15_6     6
# … with 12,948 more rows
…
